bcd/simulation/qsim/bcd.msim.vcd
$comment
	File created using the following command:
		vcd file bcd.msim.vcd -direction
$end
$date
	Mon Aug 06 00:12:09 2018
$end
$version
	ModelSim Version 10.1d
$end
$timescale
	1ps
$end
$scope module bcd_vlg_vec_tst $end
$var reg 12 ! binIN [11:0] $end
$var wire 1 " bcd_out [15] $end
$var wire 1 # bcd_out [14] $end
$var wire 1 $ bcd_out [13] $end
$var wire 1 % bcd_out [12] $end
$var wire 1 & bcd_out [11] $end
$var wire 1 ' bcd_out [10] $end
$var wire 1 ( bcd_out [9] $end
$var wire 1 ) bcd_out [8] $end
$var wire 1 * bcd_out [7] $end
$var wire 1 + bcd_out [6] $end
$var wire 1 , bcd_out [5] $end
$var wire 1 - bcd_out [4] $end
$var wire 1 . bcd_out [3] $end
$var wire 1 / bcd_out [2] $end
$var wire 1 0 bcd_out [1] $end
$var wire 1 1 bcd_out [0] $end
$var wire 1 2 sampler $end
$scope module i1 $end
$var wire 1 3 gnd $end
$var wire 1 4 vcc $end
$var wire 1 5 unknown $end
$var tri1 1 6 devclrn $end
$var tri1 1 7 devpor $end
$var tri1 1 8 devoe $end
$var wire 1 9 bcd~23_combout $end
$var wire 1 : bcd~26_combout $end
$var wire 1 ; bcd~29_combout $end
$var wire 1 < bcd~36_combout $end
$var wire 1 = bcd~39_combout $end
$var wire 1 > bcd~49_combout $end
$var wire 1 ? bcd~57_combout $end
$var wire 1 @ bcd~61_combout $end
$var wire 1 A bcd~91_combout $end
$var wire 1 B bcd~92_combout $end
$var wire 1 C bcd~24_combout $end
$var wire 1 D bcd~25_combout $end
$var wire 1 E bcd~28_combout $end
$var wire 1 F bcd~27_combout $end
$var wire 1 G bcd~30_combout $end
$var wire 1 H bcd~31_combout $end
$var wire 1 I bcd~32_combout $end
$var wire 1 J bcd~33_combout $end
$var wire 1 K bcd~34_combout $end
$var wire 1 L bcd~35_combout $end
$var wire 1 M bcd~37_combout $end
$var wire 1 N bcd~40_combout $end
$var wire 1 O bcd~38_combout $end
$var wire 1 P bcd~43_combout $end
$var wire 1 Q bcd~42_combout $end
$var wire 1 R bcd~41_combout $end
$var wire 1 S bcd~44_combout $end
$var wire 1 T bcd~45_combout $end
$var wire 1 U bcd~46_combout $end
$var wire 1 V bcd~47_combout $end
$var wire 1 W bcd~53_combout $end
$var wire 1 X bcd~87_combout $end
$var wire 1 Y bcd~48_combout $end
$var wire 1 Z LessThan0~0_combout $end
$var wire 1 [ bcd~52_combout $end
$var wire 1 \ bcd~50_combout $end
$var wire 1 ] bcd~88_combout $end
$var wire 1 ^ bcd~86_combout $end
$var wire 1 _ bcd~51_combout $end
$var wire 1 ` bcd~55_combout $end
$var wire 1 a bcd~56_combout $end
$var wire 1 b bcd~54_combout $end
$var wire 1 c bcd~59_combout $end
$var wire 1 d bcd~58_combout $end
$var wire 1 e bcd~60_combout $end
$var wire 1 f bcd~64_combout $end
$var wire 1 g bcd~65_combout $end
$var wire 1 h bcd~63_combout $end
$var wire 1 i bcd~62_combout $end
$var wire 1 j bcd~66_combout $end
$var wire 1 k bcd~67_combout $end
$var wire 1 l bcd~68_combout $end
$var wire 1 m bcd~69_combout $end
$var wire 1 n bcd~80_combout $end
$var wire 1 o LessThan6~0_combout $end
$var wire 1 p LessThan8~0_combout $end
$var wire 1 q bcd~72_combout $end
$var wire 1 r bcd~89_combout $end
$var wire 1 s bcd~75_combout $end
$var wire 1 t bcd~71_combout $end
$var wire 1 u bcd~74_combout $end
$var wire 1 v bcd~76_combout $end
$var wire 1 w bcd~79_combout $end
$var wire 1 x bcd~77_combout $end
$var wire 1 y bcd~78_combout $end
$var wire 1 z bcd~81_combout $end
$var wire 1 { bcd~82_combout $end
$var wire 1 | bcd~83_combout $end
$var wire 1 } bcd~84_combout $end
$var wire 1 ~ bcd~70_combout $end
$var wire 1 !! bcd~73_combout $end
$var wire 1 "! bcd~85_combout $end
$var wire 1 #! bcd~7_combout $end
$var wire 1 $! bcd~90_combout $end
$var wire 1 %! binIN~combout [11] $end
$var wire 1 &! binIN~combout [10] $end
$var wire 1 '! binIN~combout [9] $end
$var wire 1 (! binIN~combout [8] $end
$var wire 1 )! binIN~combout [7] $end
$var wire 1 *! binIN~combout [6] $end
$var wire 1 +! binIN~combout [5] $end
$var wire 1 ,! binIN~combout [4] $end
$var wire 1 -! binIN~combout [3] $end
$var wire 1 .! binIN~combout [2] $end
$var wire 1 /! binIN~combout [1] $end
$var wire 1 0! binIN~combout [0] $end
$upscope $end
$upscope $end
$enddefinitions $end
#0
$dumpvars
b1100100 !
01
00
0/
0.
0-
0,
0+
0*
1)
0(
0'
0&
0%
0$
0#
0"
x2
03
14
x5
16
17
18
09
0:
1;
0<
0=
1>
0?
1@
0A
0B
0C
0D
0E
0F
0G
0H
1I
0J
1K
1L
0M
1N
0O
0P
0Q
0R
0S
0T
0U
1V
1W
0X
1Y
0Z
0[
0\
1]
0^
0_
1`
0a
1b
1c
0d
0e
0f
0g
0h
1i
1j
1k
0l
0m
1n
0o
0p
1q
1r
0s
0t
0u
1v
0w
1x
0y
1z
1{
0|
1}
1~
0!!
1"!
0#!
0$!
00!
0/!
1.!
0-!
0,!
1+!
1*!
0)!
0(!
0'!
0&!
0%!
$end
#1000
b1100101 !
10!
02
11
#2000
b1100111 !
b1100110 !
00!
1/!
12
1S
01
10
#3000
b1100111 !
10!
02
11
#4000
b1101111 !
b1101011 !
b1101001 !
b1101000 !
00!
0/!
0.!
1-!
12
0S
1g
1Q
1O
01
1m
1l
0V
1T
1S
0g
1R
0Q
00
0m
0l
1V
0S
1*
1/
10
0)
1-
0*
00
1)
0-
#5000
b1101001 !
10!
02
11
#6000
b1101011 !
b1101010 !
00!
1/!
12
1S
01
10
#7000
b1101011 !
10!
02
11
#8000
b1101111 !
b1101101 !
b1101100 !
00!
0/!
1.!
12
0S
0R
1P
01
1U
0T
00
1.
0/
#9000
b1101101 !
10!
02
11
#10000
b1101111 !
b1101110 !
00!
1/!
12
0V
0U
01
0.
1-
#11000
b1101111 !
10!
02
11
#12000
b1111111 !
b1110111 !
b1110011 !
b1110001 !
b1110000 !
00!
0/!
0.!
0-!
1,!
12
1V
1U
1R
0P
0O
1M
0L
01
0U
1T
1g
0R
1Q
0N
1=
1.
0-
1m
1l
0V
1S
0g
1R
0Q
1P
0.
1/
0m
0l
0T
1*
10
0)
1-
0*
0/
1)
#13000
b1110001 !
10!
02
11
#14000
b1110011 !
b1110010 !
00!
1/!
12
1T
0S
01
1/
00
#15000
b1110011 !
10!
02
11
#16000
b1110111 !
b1110101 !
b1110100 !
00!
0/!
1.!
12
0T
1S
0R
1Q
0P
01
1T
0/
10
1/
#17000
b1110101 !
10!
02
11
#18000
b1110111 !
b1110110 !
00!
1/!
12
1U
0T
0S
01
1.
0/
00
#19000
b1110111 !
10!
02
11
#20000
b1111111 !
b1111011 !
b1111001 !
b1111000 !
00!
0/!
0.!
1-!
12
0U
1T
1S
1R
0Q
1P
0@
0=
01
0T
0i
1g
0R
0P
0.
1/
10
0j
1V
0S
0/
00
1,
0-
#21000
b1111001 !
10!
02
11
#22000
b1111011 !
b1111010 !
00!
1/!
12
1S
01
10
#23000
b1111011 !
10!
02
11
#24000
b1111111 !
b1111101 !
b1111100 !
00!
0/!
1.!
12
0S
1R
01
1T
00
1/
#25000
b1111101 !
10!
02
11
#26000
b1111111 !
b1111110 !
00!
1/!
12
1S
01
10
#27000
b1111111 !
10!
02
11
#28000
b11111111 !
b10111111 !
b10011111 !
b10001111 !
b10000111 !
b10000011 !
b10000001 !
b10000000 !
00!
0/!
0.!
0-!
0,!
0+!
0*!
1)!
12
0S
0R
1@
1=
0M
1L
0I
0;
1A
1:
01
0T
1i
0g
1R
1P
1N
0=
0L
1?
1<
0K
1H
00
1j
0V
1S
1g
0R
1Q
0P
1O
0@
1d
0<
1J
0/
1m
1l
1T
0g
1R
0Q
0i
1h
0O
0N
1@
1M
1L
0?
10
0,
1-
0l
0k
0j
1V
0S
1g
0R
1i
1O
0@
0d
1*
1/
0)
1k
1j
0T
1P
0i
0h
0*
00
1+
1,
0-
1U
0m
0j
0/
0+
0,
1.
1)
1,
#29000
b10000001 !
10!
02
11
#30000
b10000011 !
b10000010 !
00!
1/!
12
0V
0U
01
0.
1-
#31000
b10000011 !
10!
02
11
#32000
b10000111 !
b10000101 !
b10000100 !
00!
0/!
1.!
12
1V
1U
1R
01
0V
0U
1S
1.
0-
0.
10
1-
#33000
b10000101 !
10!
02
11
#34000
b10000111 !
b10000110 !
00!
1/!
12
1T
0S
01
1/
00
#35000
b10000111 !
10!
02
11
#36000
b10001111 !
b10001011 !
b10001001 !
b10001000 !
00!
0/!
0.!
1-!
12
0T
1S
0R
0O
1N
01
1V
1U
0S
1Q
0P
0/
10
0V
0U
1T
1S
1.
00
0-
0.
1/
10
1-
#37000
b10001001 !
10!
02
11
#38000
b10001011 !
b10001010 !
00!
1/!
12
1U
0T
0S
01
1.
0/
00
#39000
b10001011 !
10!
02
11
#40000
b10001111 !
b10001101 !
b10001100 !
00!
0/!
1.!
12
0U
1T
1S
0g
0Q
01
0k
1j
1V
0T
0S
0.
1/
10
0/
00
1+
0,
0-
#41000
b10001101 !
10!
02
11
#42000
b10001111 !
b10001110 !
00!
1/!
12
1S
01
10
#43000
b10001111 !
10!
02
11
#44000
b10011111 !
b10010111 !
b10010011 !
b10010001 !
b10010000 !
00!
0/!
0.!
0-!
1,!
12
0S
1g
1Q
1O
0N
0M
0L
1<
01
1k
0j
0V
1T
1S
0Q
1P
1N
00
1V
1U
0T
0S
0g
1R
0P
1/
10
0+
1,
1-
0k
1j
0U
1T
1.
0/
00
0-
0.
1/
1+
0,
#45000
b10010001 !
10!
02
11
#46000
b10010011 !
b10010010 !
00!
1/!
12
1S
01
10
#47000
b10010011 !
10!
02
11
#48000
b10010111 !
b10010101 !
b10010100 !
00!
0/!
1.!
12
0S
0R
1P
01
1U
0T
00
1.
0/
#49000
b10010101 !
10!
02
11
#50000
b10010111 !
b10010110 !
00!
1/!
12
0V
0U
01
0.
1-
#51000
b10010111 !
10!
02
11
#52000
b10011111 !
b10011011 !
b10011001 !
b10011000 !
00!
0/!
0.!
1-!
12
1V
1U
1R
0P
0O
0N
1=
01
0U
1T
1P
1.
0-
0V
0T
1S
0.
1/
0/
10
1-
#53000
b10011001 !
10!
02
11
#54000
b10011011 !
b10011010 !
00!
1/!
12
1T
0S
01
1/
00
#55000
b10011011 !
10!
02
11
#56000
b10011111 !
b10011101 !
b10011100 !
00!
0/!
1.!
12
0T
1S
0R
1Q
0P
01
1T
0/
10
1/
#57000
b10011101 !
10!
02
11
#58000
b10011111 !
b10011110 !
00!
1/!
12
1U
0T
0S
01
1.
0/
00
#59000
b10011111 !
10!
02
11
#60000
b10111111 !
b10101111 !
b10100111 !
b10100011 !
b10100001 !
b10100000 !
00!
0/!
0.!
0-!
0,!
1+!
12
0U
1T
1S
1R
0Q
1P
1O
1N
0=
1M
1L
0<
0W
0J
01
0T
0P
0N
1p
0b
0M
0L
1?
0.
1/
10
1V
1T
0S
1g
0R
1P
1d
0c
0O
1@
0/
1k
0j
1U
0T
1i
1h
1f
0P
1/
00
0-
0k
0U
1.
0/
0+
1,
0.
1+
#61000
b10100001 !
10!
02
11
#62000
b10100011 !
b10100010 !
00!
1/!
12
1S
01
10
#63000
b10100011 !
10!
02
11
#64000
b10100111 !
b10100101 !
b10100100 !
00!
0/!
1.!
12
0S
1R
01
1T
00
1/
#65000
b10100101 !
10!
02
11
#66000
b10100111 !
b10100110 !
00!
1/!
12
1S
01
10
#67000
b10100111 !
10!
02
11
#68000
b10101111 !
b10101011 !
b10101001 !
b10101000 !
00!
0/!
0.!
1-!
12
0S
0R
1O
01
0T
1P
00
1U
0/
1.
#69000
b10101001 !
10!
02
11
#70000
b10101011 !
b10101010 !
00!
1/!
12
0V
0U
01
0.
1-
#71000
b10101011 !
10!
02
11
#72000
b10101111 !
b10101101 !
b10101100 !
00!
0/!
1.!
12
1V
1U
1R
01
0V
0U
1S
1.
0-
0.
10
1-
#73000
b10101101 !
10!
02
11
#74000
b10101111 !
b10101110 !
00!
1/!
12
1T
0S
01
1/
00
#75000
b10101111 !
10!
02
11
#76000
b10111111 !
b10110111 !
b10110011 !
b10110001 !
b10110000 !
00!
0/!
0.!
0-!
1,!
12
0T
1S
0R
0O
1L
01
1V
1U
0S
0P
1N
0/
10
0U
1Q
1.
00
0-
0V
1T
1S
0.
1/
10
1-
#77000
b10110001 !
10!
02
11
#78000
b10110011 !
b10110010 !
00!
1/!
12
1U
0T
0S
01
1.
0/
00
#79000
b10110011 !
10!
02
11
#80000
b10110111 !
b10110101 !
b10110100 !
00!
0/!
1.!
12
0U
1T
1S
0g
0Q
01
1l
1k
1j
1V
0T
0S
0.
1/
10
1*
0/
00
0+
0,
0-
#81000
b10110101 !
10!
02
11
#82000
b10110111 !
b10110110 !
00!
1/!
12
1S
01
10
#83000
b10110111 !
10!
02
11
#84000
b10111111 !
b10111011 !
b10111001 !
b10111000 !
00!
0/!
0.!
1-!
12
0S
1g
1Q
1O
01
0l
0k
0j
0V
1T
1S
0g
1R
0Q
00
1l
1k
1j
1V
0S
0*
1/
10
1+
1,
1-
1*
00
0+
0,
0-
#85000
b10111001 !
10!
02
11
#86000
b10111011 !
b10111010 !
00!
1/!
12
1S
01
10
#87000
b10111011 !
10!
02
11
#88000
b10111111 !
b10111101 !
b10111100 !
00!
0/!
1.!
12
0S
0R
1P
01
1U
0T
00
1.
0/
#89000
b10111101 !
10!
02
11
#90000
b10111111 !
b10111110 !
00!
1/!
12
0V
0U
01
0.
1-
#91000
b10111111 !
10!
02
11
#92000
b11111111 !
b11011111 !
b11001111 !
b11000111 !
b11000011 !
b11000001 !
b11000000 !
00!
0/!
0.!
0-!
0,!
0+!
1*!
12
1V
1U
1R
0P
0O
0L
1W
1J
1;
01
0U
1T
1g
0R
1Q
0N
0p
1b
1M
1L
0?
0W
0J
1I
1.
0-
0l
0k
0j
0V
1S
0Q
0d
1c
1O
0@
1p
0b
0L
1?
0.
1/
1V
0T
0S
0i
0h
0f
1P
1d
0c
0O
1@
1=
0*
10
1+
1,
1-
1k
1U
1i
1h
1f
0g
1R
0/
00
0-
1l
1j
0V
0U
1S
1.
0+
1*
0.
10
0,
1-
#93000
b11000001 !
10!
02
11
#94000
b11000011 !
b11000010 !
00!
1/!
12
1T
0S
01
1/
00
#95000
b11000011 !
10!
02
11
#96000
b11000111 !
b11000101 !
b11000100 !
00!
0/!
1.!
12
0T
1S
0R
1Q
0P
01
1T
0/
10
1/
#97000
b11000101 !
10!
02
11
#98000
b11000111 !
b11000110 !
00!
1/!
12
1U
0T
0S
01
1.
0/
00
#99000
b11000111 !
10!
02
11
#100000
b11001111 !
b11001011 !
b11001001 !
b11001000 !
00!
0/!
0.!
1-!
12
0U
1T
1S
1R
0Q
1P
0@
0=
01
0T
0n
0f
1g
0R
0P
0.
1/
10
0z
1m
0l
1V
0S
0/
0*
00
1(
0)
0-
#101000
b11001001 !
10!
02
11
#102000
b11001011 !
b11001010 !
00!
1/!
12
1S
01
10
#103000
b11001011 !
10!
02
11
#104000
b11001111 !
b11001101 !
b11001100 !
00!
0/!
1.!
12
0S
1R
01
1T
00
1/
#105000
b11001101 !
10!
02
11
#106000
b11001111 !
b11001110 !
00!
1/!
12
1S
01
10
#107000
b11001111 !
10!
02
11
#108000
b11011111 !
b11010111 !
b11010011 !
b11010001 !
b11010000 !
00!
0/!
0.!
0-!
1,!
12
0S
0R
1@
1=
1L
01
0T
1n
1f
0g
1R
1P
1O
0@
0=
00
1z
0m
1l
0V
1S
1g
0R
0n
0f
0/
1m
0l
1V
1U
0S
0z
1*
10
0(
1)
1-
0*
1.
00
0)
0-
1(
#109000
b11010001 !
10!
02
11
#110000
b11010011 !
b11010010 !
00!
1/!
12
0V
0U
01
0.
1-
#111000
b11010011 !
10!
02
11
#112000
b11010111 !
b11010101 !
b11010100 !
00!
0/!
1.!
12
1V
1U
1R
01
0V
0U
1S
1.
0-
0.
10
1-
#113000
b11010101 !
10!
02
11
#114000
b11010111 !
b11010110 !
00!
1/!
12
1T
0S
01
1/
00
#115000
b11010111 !
10!
02
11
#116000
b11011111 !
b11011011 !
b11011001 !
b11011000 !
00!
0/!
0.!
1-!
12
0T
1S
0R
0O
1N
01
1V
1U
0S
1Q
0P
0/
10
0V
0U
1T
1S
1.
00
0-
0.
1/
10
1-
#117000
b11011001 !
10!
02
11
#118000
b11011011 !
b11011010 !
00!
1/!
12
1U
0T
0S
01
1.
0/
00
#119000
b11011011 !
10!
02
11
#120000
b11011111 !
b11011101 !
b11011100 !
00!
0/!
1.!
12
0U
1T
1S
0g
0Q
01
0j
1V
0T
0S
0.
1/
10
0/
00
1,
0-
#121000
b11011101 !
10!
02
11
#122000
b11011111 !
b11011110 !
00!
1/!
12
1S
01
10
#123000
b11011111 !
10!
02
11
#124000
b11111111 !
b11101111 !
b11100111 !
b11100011 !
b11100001 !
b11100000 !
00!
0/!
0.!
0-!
0,!
1+!
12
0S
1g
1Q
1O
0N
0L
1K
0I
01
1j
0V
1T
1S
0Q
1P
0O
1@
1=
0M
1<
00
1V
1U
0T
0S
0g
1R
1n
1f
1O
1N
0@
0=
1/
10
0,
1-
0m
1l
0V
0U
1S
1z
0P
0n
0f
1.
0/
00
0-
1V
1T
0S
0z
1m
0l
0j
1*
0.
10
1)
1-
0(
1/
00
0*
0-
1(
0)
1,
#125000
b11100001 !
10!
02
11
#126000
b11100011 !
b11100010 !
00!
1/!
12
1S
01
10
#127000
b11100011 !
10!
02
11
#128000
b11100111 !
b11100101 !
b11100100 !
00!
0/!
1.!
12
0S
0R
1P
01
1U
0T
00
1.
0/
#129000
b11100101 !
10!
02
11
#130000
b11100111 !
b11100110 !
00!
1/!
12
0V
0U
01
0.
1-
#131000
b11100111 !
10!
02
11
#132000
b11101111 !
b11101011 !
b11101001 !
b11101000 !
00!
0/!
0.!
1-!
12
1V
1U
1R
0P
0O
0N
1=
01
0U
1T
1P
1.
0-
0V
0T
1S
0.
1/
0/
10
1-
#133000
b11101001 !
10!
02
11
#134000
b11101011 !
b11101010 !
00!
1/!
12
1T
0S
01
1/
00
#135000
b11101011 !
10!
02
11
#136000
b11101111 !
b11101101 !
b11101100 !
00!
0/!
1.!
12
0T
1S
0R
1Q
0P
01
1T
0/
10
1/
#137000
b11101101 !
10!
02
11
#138000
b11101111 !
b11101110 !
00!
1/!
12
1U
0T
0S
01
1.
0/
00
#139000
b11101111 !
10!
02
11
#140000
b11111111 !
b11110111 !
b11110011 !
b11110001 !
b11110000 !
00!
0/!
0.!
0-!
1,!
12
0U
1T
1S
1R
0Q
1P
1O
1N
0=
0?
0<
01
0T
0P
0d
0O
0N
1@
0.
1/
10
1V
1T
0S
0i
1g
0R
0/
0k
1j
0T
1/
00
0-
0/
1+
0,
#141000
b11110001 !
10!
02
11
#142000
b11110011 !
b11110010 !
00!
1/!
12
1S
01
10
#143000
b11110011 !
10!
02
11
#144000
b11110111 !
b11110101 !
b11110100 !
00!
0/!
1.!
12
0S
1R
01
1T
00
1/
#145000
b11110101 !
10!
02
11
#146000
b11110111 !
b11110110 !
00!
1/!
12
1S
01
10
#147000
b11110111 !
10!
02
11
#148000
b11111111 !
b11111011 !
b11111001 !
b11111000 !
00!
0/!
0.!
1-!
12
0S
0R
1O
01
0T
1P
00
1U
0/
1.
#149000
b11111001 !
10!
02
11
#150000
b11111011 !
b11111010 !
00!
1/!
12
0V
0U
01
0.
1-
#151000
b11111011 !
10!
02
11
#152000
b11111111 !
b11111101 !
b11111100 !
00!
0/!
1.!
12
1V
1U
1R
01
0V
0U
1S
1.
0-
0.
10
1-
#153000
b11111101 !
10!
02
11
#154000
b11111111 !
b11111110 !
00!
1/!
12
1T
0S
01
1/
00
#155000
b11111111 !
10!
02
11
#156000
b111111111 !
b101111111 !
b100111111 !
b100011111 !
b100001111 !
b100000111 !
b100000011 !
b100000001 !
b100000000 !
00!
0/!
0.!
0-!
0,!
0+!
0*!
0)!
1(!
12
0T
1S
0R
0O
1?
1<
0K
1I
0;
0:
19
01
1V
1U
0S
0P
1d
1O
1N
0@
1M
0<
1W
1J
0I
0H
1E
0/
10
0U
1i
0g
1R
0O
0N
1@
1=
0p
1b
1L
0?
0J
1G
1.
00
0-
1k
0j
1T
1P
1n
1f
0d
1c
1O
0@
0=
0M
0L
1?
0W
1K
1I
0.
0V
0T
1S
1z
0m
1l
1j
0i
0h
0f
1g
0R
0O
1@
1d
1p
0b
1L
0?
1/
0+
1,
0l
0j
1V
1U
0S
0P
1i
1h
0d
0c
1N
0/
10
1*
1-
0(
1)
0,
0U
1m
1j
0n
0i
1Q
0*
1.
00
1,
0-
0z
0k
0V
1T
1S
0.
0)
0,
1/
10
1(
1+
1-
#157000
b100000001 !
10!
02
11
#158000
b100000011 !
b100000010 !
00!
1/!
12
1U
0T
0S
01
1.
0/
00
#159000
b100000011 !
10!
02
11
#160000
b100000111 !
b100000101 !
b100000100 !
00!
0/!
1.!
12
0U
1T
1S
0g
0Q
01
0j
1V
0T
0S
0.
1/
10
0/
00
1,
0-
#161000
b100000101 !
10!
02
11
#162000
b100000111 !
b100000110 !
00!
1/!
12
1S
01
10
#163000
b100000111 !
10!
02
11
#164000
b100001111 !
b100001011 !
b100001001 !
b100001000 !
00!
0/!
0.!
1-!
12
0S
1g
1Q
1O
01
1j
0V
1T
1S
0g
1R
0Q
00
0j
1V
0S
1/
10
0,
1-
00
1,
0-
#165000
b100001001 !
10!
02
11
#166000
b100001011 !
b100001010 !
00!
1/!
12
1S
01
10
#167000
b100001011 !
10!
02
11
#168000
b100001111 !
b100001101 !
b100001100 !
00!
0/!
1.!
12
0S
0R
1P
01
1U
0T
00
1.
0/
#169000
b100001101 !
10!
02
11
#170000
b100001111 !
b100001110 !
00!
1/!
12
0V
0U
01
0.
1-
#171000
b100001111 !
10!
02
11
#172000
b100011111 !
b100010111 !
b100010011 !
b100010001 !
b100010000 !
00!
0/!
0.!
0-!
1,!
12
1V
1U
1R
0P
0O
1M
0L
01
0U
1T
1g
0R
1Q
0N
1=
1.
0-
1j
0V
1S
0g
1R
0Q
1P
0.
1/
0j
0T
10
0,
1-
0/
1,
#173000
b100010001 !
10!
02
11
#174000
b100010011 !
b100010010 !
00!
1/!
12
1T
0S
01
1/
00
#175000
b100010011 !
10!
02
11
#176000
b100010111 !
b100010101 !
b100010100 !
00!
0/!
1.!
12
0T
1S
0R
1Q
0P
01
1T
0/
10
1/
#177000
b100010101 !
10!
02
11
#178000
b100010111 !
b100010110 !
00!
1/!
12
1U
0T
0S
01
1.
0/
00
#179000
b100010111 !
10!
02
11
#180000
b100011111 !
b100011011 !
b100011001 !
b100011000 !
00!
0/!
0.!
1-!
12
0U
1T
1S
1R
0Q
1P
0@
0=
01
0T
1i
0h
1g
0R
0P
0.
1/
10
1l
1k
1j
1V
0S
0/
1*
00
0+
0,
0-
#181000
b100011001 !
10!
02
11
#182000
b100011011 !
b100011010 !
00!
1/!
12
1S
01
10
#183000
b100011011 !
10!
02
11
#184000
b100011111 !
b100011101 !
b100011100 !
00!
0/!
1.!
12
0S
1R
01
1T
00
1/
#185000
b100011101 !
10!
02
11
#186000
b100011111 !
b100011110 !
00!
1/!
12
1S
01
10
#187000
b100011111 !
10!
02
11
#188000
b100111111 !
b100101111 !
b100100111 !
b100100011 !
b100100001 !
b100100000 !
00!
0/!
0.!
0-!
0,!
1+!
12
0S
0R
1@
1=
0M
1L
0K
1J
0I
01
0T
0i
1h
0g
1R
1P
1N
0=
1M
00
0l
0k
0j
0V
1S
1g
0R
1Q
0P
1O
0N
0@
0/
1j
1T
0Q
1P
1i
0h
0*
10
1+
1,
1-
1V
1U
0T
0S
1l
1k
1/
0,
1.
0/
00
1*
0-
0+
#189000
b100100001 !
10!
02
11
#190000
b100100011 !
b100100010 !
00!
1/!
12
0V
0U
01
0.
1-
#191000
b100100011 !
10!
02
11
#192000
b100100111 !
b100100101 !
b100100100 !
00!
0/!
1.!
12
1V
1U
1R
01
0V
0U
1S
1.
0-
0.
10
1-
#193000
b100100101 !
10!
02
11
#194000
b100100111 !
b100100110 !
00!
1/!
12
1T
0S
01
1/
00
#195000
b100100111 !
10!
02
11
#196000
b100101111 !
b100101011 !
b100101001 !
b100101000 !
00!
0/!
0.!
1-!
12
0T
1S
0R
0O
1N
01
1V
1U
0S
1Q
0P
0/
10
0V
0U
1T
1S
1.
00
0-
0.
1/
10
1-
#197000
b100101001 !
10!
02
11
#198000
b100101011 !
b100101010 !
00!
1/!
12
1U
0T
0S
01
1.
0/
00
#199000
b100101011 !
10!
02
11
#200000
b100101111 !
b100101101 !
b100101100 !
00!
0/!
1.!
12
0U
1T
1S
0g
0Q
01
0m
0l
1V
0T
0S
0.
1/
10
0*
0/
00
1)
0-
#201000
b100101101 !
10!
02
11
#202000
b100101111 !
b100101110 !
00!
1/!
12
1S
01
10
#203000
b100101111 !
10!
02
11
#204000
b100111111 !
b100110111 !
b100110011 !
b100110001 !
b100110000 !
00!
0/!
0.!
0-!
1,!
12
0S
1g
1Q
1O
0N
0M
0L
1<
01
1m
1l
0V
1T
1S
0Q
1P
1N
00
1V
1U
0T
0S
0g
1R
0P
1*
1/
10
0)
1-
0m
0l
0U
1T
1.
0/
00
0-
0*
0.
1/
1)
#205000
b100110001 !
10!
02
11
#206000
b100110011 !
b100110010 !
00!
1/!
12
1S
01
10
#207000
b100110011 !
10!
02
11
#208000
b100110111 !
b100110101 !
b100110100 !
00!
0/!
1.!
12
0S
0R
1P
01
1U
0T
00
1.
0/
#209000
b100110101 !
10!
02
11
#210000
b100110111 !
b100110110 !
00!
1/!
12
0V
0U
01
0.
1-
#211000
b100110111 !
10!
02
11
#212000
b100111111 !
b100111011 !
b100111001 !
b100111000 !
00!
0/!
0.!
1-!
12
1V
1U
1R
0P
0O
0N
1=
01
0U
1T
1P
1.
0-
0V
0T
1S
0.
1/
0/
10
1-
#213000
b100111001 !
10!
02
11
#214000
b100111011 !
b100111010 !
00!
1/!
12
1T
0S
01
1/
00
#215000
b100111011 !
10!
02
11
#216000
b100111111 !
b100111101 !
b100111100 !
00!
0/!
1.!
12
0T
1S
0R
1Q
0P
01
1T
0/
10
1/
#217000
b100111101 !
10!
02
11
#218000
b100111111 !
b100111110 !
00!
1/!
12
1U
0T
0S
01
1.
0/
00
#219000
b100111111 !
10!
02
11
#220000
b101111111 !
b101011111 !
b101001111 !
b101000111 !
b101000011 !
b101000001 !
b101000000 !
00!
0/!
0.!
0-!
0,!
0+!
1*!
12
0U
1T
1S
1R
0Q
1P
1O
1N
0=
1M
1L
0<
1K
0J
1I
0Y
0G
01
0T
0P
0N
0M
0>
1W
0K
0I
0.
1/
10
1V
1T
0S
1g
0R
1P
0O
1N
1@
1b
0`
0L
1?
0/
1m
1l
1U
0T
1Q
0P
0i
1h
1e
1d
1c
0N
1/
00
0-
0V
0U
1T
1S
0l
0k
0h
0Q
1*
1.
0/
0)
0m
1k
0j
1V
0T
0S
0.
1/
10
0*
1-
1+
0/
00
1)
0+
1,
0-
#221000
b101000001 !
10!
02
11
#222000
b101000011 !
b101000010 !
00!
1/!
12
1S
01
10
#223000
b101000011 !
10!
02
11
#224000
b101000111 !
b101000101 !
b101000100 !
00!
0/!
1.!
12
0S
1R
01
1T
00
1/
#225000
b101000101 !
10!
02
11
#226000
b101000111 !
b101000110 !
00!
1/!
12
1S
01
10
#227000
b101000111 !
10!
02
11
#228000
b101001111 !
b101001011 !
b101001001 !
b101001000 !
00!
0/!
0.!
1-!
12
0S
0R
1O
01
0T
1P
00
1U
0/
1.
#229000
b101001001 !
10!
02
11
#230000
b101001011 !
b101001010 !
00!
1/!
12
0V
0U
01
0.
1-
#231000
b101001011 !
10!
02
11
#232000
b101001111 !
b101001101 !
b101001100 !
00!
0/!
1.!
12
1V
1U
1R
01
0V
0U
1S
1.
0-
0.
10
1-
#233000
b101001101 !
10!
02
11
#234000
b101001111 !
b101001110 !
00!
1/!
12
1T
0S
01
1/
00
#235000
b101001111 !
10!
02
11
#236000
b101011111 !
b101010111 !
b101010011 !
b101010001 !
b101010000 !
00!
0/!
0.!
0-!
1,!
12
0T
1S
0R
0O
1L
01
1V
1U
0S
0P
1N
0/
10
0U
1Q
1.
00
0-
0V
1T
1S
0.
1/
10
1-
#237000
b101010001 !
10!
02
11
#238000
b101010011 !
b101010010 !
00!
1/!
12
1U
0T
0S
01
1.
0/
00
#239000
b101010011 !
10!
02
11
#240000
b101010111 !
b101010101 !
b101010100 !
00!
0/!
1.!
12
0U
1T
1S
0g
0Q
01
0k
1j
1V
0T
0S
0.
1/
10
0/
00
1+
0,
0-
#241000
b101010101 !
10!
02
11
#242000
b101010111 !
b101010110 !
00!
1/!
12
1S
01
10
#243000
b101010111 !
10!
02
11
#244000
b101011111 !
b101011011 !
b101011001 !
b101011000 !
00!
0/!
0.!
1-!
12
0S
1g
1Q
1O
01
1k
0j
0V
1T
1S
0g
1R
0Q
00
0k
1j
1V
0S
1/
10
0+
1,
1-
00
1+
0,
0-
#245000
b101011001 !
10!
02
11
#246000
b101011011 !
b101011010 !
00!
1/!
12
1S
01
10
#247000
b101011011 !
10!
02
11
#248000
b101011111 !
b101011101 !
b101011100 !
00!
0/!
1.!
12
0S
0R
1P
01
1U
0T
00
1.
0/
#249000
b101011101 !
10!
02
11
#250000
b101011111 !
b101011110 !
00!
1/!
12
0V
0U
01
0.
1-
#251000
b101011111 !
10!
02
11
