somador_bin_par/simulation/qsim/somador_bin_par.msim.vcd
$comment
	File created using the following command:
		vcd file somador_bin_par.msim.vcd -direction
$end
$date
	Mon Aug 13 20:51:06 2018
$end
$version
	ModelSim Version 10.1d
$end
$timescale
	1ps
$end
$scope module somador_for_vlg_vec_tst $end
$var reg 8 ! x [7:0] $end
$var reg 8 " y [7:0] $end
$var reg 1 # ze $end
$var wire 1 $ s [7] $end
$var wire 1 % s [6] $end
$var wire 1 & s [5] $end
$var wire 1 ' s [4] $end
$var wire 1 ( s [3] $end
$var wire 1 ) s [2] $end
$var wire 1 * s [1] $end
$var wire 1 + s [0] $end
$var wire 1 , zs $end
$var wire 1 - sampler $end
$scope module i1 $end
$var wire 1 . gnd $end
$var wire 1 / vcc $end
$var wire 1 0 unknown $end
$var tri1 1 1 devclrn $end
$var tri1 1 2 devpor $end
$var tri1 1 3 devoe $end
$var wire 1 4 ze~combout $end
$var wire 1 5 abc:0:centro|S~1_cout $end
$var wire 1 6 abc:0:centro|S~2_combout $end
$var wire 1 7 abc:0:centro|S~3 $end
$var wire 1 8 abc:0:centro|S~4_combout $end
$var wire 1 9 abc:0:centro|S~5 $end
$var wire 1 : abc:0:centro|S~6_combout $end
$var wire 1 ; abc:0:centro|S~7 $end
$var wire 1 < abc:0:centro|S~8_combout $end
$var wire 1 = abc:0:centro|S~9 $end
$var wire 1 > abc:0:centro|S~10_combout $end
$var wire 1 ? abc:0:centro|S~11 $end
$var wire 1 @ abc:0:centro|S~12_combout $end
$var wire 1 A abc:0:centro|S~13 $end
$var wire 1 B abc:0:centro|S~14_combout $end
$var wire 1 C abc:0:centro|S~15 $end
$var wire 1 D abc:0:centro|S~16_combout $end
$var wire 1 E abc:0:centro|S~17 $end
$var wire 1 F abc:0:centro|S~18_combout $end
$var wire 1 G y~combout [7] $end
$var wire 1 H y~combout [6] $end
$var wire 1 I y~combout [5] $end
$var wire 1 J y~combout [4] $end
$var wire 1 K y~combout [3] $end
$var wire 1 L y~combout [2] $end
$var wire 1 M y~combout [1] $end
$var wire 1 N y~combout [0] $end
$var wire 1 O x~combout [7] $end
$var wire 1 P x~combout [6] $end
$var wire 1 Q x~combout [5] $end
$var wire 1 R x~combout [4] $end
$var wire 1 S x~combout [3] $end
$var wire 1 T x~combout [2] $end
$var wire 1 U x~combout [1] $end
$var wire 1 V x~combout [0] $end
$upscope $end
$upscope $end
$enddefinitions $end
#0
$dumpvars
b0 !
b0 "
0#
0+
0*
0)
0(
0'
0&
0%
0$
0,
x-
0.
1/
x0
11
12
13
04
05
06
17
08
09
0:
1;
0<
0=
0>
1?
0@
0A
0B
1C
0D
0E
0F
0N
0M
0L
0K
0J
0I
0H
0G
0V
0U
0T
0S
0R
0Q
0P
0O
$end
#10000
b1 !
b1 "
1N
1V
0-
07
18
1*
#20000
b11 !
b11 "
b10 !
b10 "
0N
1M
0V
1U
1-
17
19
08
1:
0*
1)
#30000
b11 !
b11 "
1N
1V
0-
07
18
1*
#40000
b111 !
b111 "
b101 !
b101 "
b100 !
b100 "
0N
0M
1L
0V
0U
1T
1-
17
09
0;
08
0:
1<
0*
0)
1(
#50000
b101 !
b101 "
1N
1V
0-
07
18
1*
#60000
b111 !
b111 "
b110 !
b110 "
0N
1M
0V
1U
1-
17
19
08
1:
0*
1)
#70000
b111 !
b111 "
1N
1V
0-
07
18
1*
#80000
b1111 !
b1111 "
b1011 !
b1011 "
b1001 !
b1001 "
b1000 !
b1000 "
0N
0M
0L
1K
0V
0U
0T
1S
1-
17
09
1;
1=
08
0:
0<
1>
0*
0)
0(
1'
#90000
b1001 !
b1001 "
1N
1V
0-
07
18
1*
#100000
b1011 !
b1011 "
b1010 !
b1010 "
0N
1M
0V
1U
1-
17
19
08
1:
0*
1)
#110000
b1011 !
b1011 "
1N
1V
0-
07
18
1*
#120000
b1111 !
b1111 "
b1101 !
b1101 "
b1100 !
b1100 "
0N
0M
1L
0V
0U
1T
1-
17
09
0;
08
0:
1<
0*
0)
1(
#130000
b1101 !
b1101 "
1N
1V
0-
07
18
1*
#140000
b1111 !
b1111 "
b1110 !
b1110 "
0N
1M
0V
1U
1-
17
19
08
1:
0*
1)
#150000
b1111 !
b1111 "
1N
1V
0-
07
18
1*
#160000
b11111 !
b11111 "
b10111 !
b10111 "
b10011 !
b10011 "
b10001 !
b10001 "
b10000 !
b10000 "
0N
0M
0L
0K
1J
0V
0U
0T
0S
1R
1-
17
09
1;
0=
0?
08
0:
0<
0>
1@
0*
0)
0(
0'
1&
#170000
b10001 !
b10001 "
1N
1V
0-
07
18
1*
#180000
b10011 !
b10011 "
b10010 !
b10010 "
0N
1M
0V
1U
1-
17
19
08
1:
0*
1)
#190000
b10011 !
b10011 "
1N
1V
0-
07
18
1*
#200000
b10111 !
b10111 "
b10101 !
b10101 "
b10100 !
b10100 "
0N
0M
1L
0V
0U
1T
1-
17
09
0;
08
0:
1<
0*
0)
1(
#210000
b10101 !
b10101 "
1N
1V
0-
07
18
1*
#220000
b10111 !
b10111 "
b10110 !
b10110 "
0N
1M
0V
1U
1-
17
19
08
1:
0*
1)
#230000
b10111 !
b10111 "
1N
1V
0-
07
18
1*
#240000
b11111 !
b11111 "
b11011 !
b11011 "
b11001 !
b11001 "
b11000 !
b11000 "
0N
0M
0L
1K
0V
0U
0T
1S
1-
17
09
1;
1=
08
0:
0<
1>
0*
0)
0(
1'
#250000
b11001 !
b11001 "
1N
1V
0-
07
18
1*
#260000
b11011 !
b11011 "
b11010 !
b11010 "
0N
1M
0V
1U
1-
17
19
08
1:
0*
1)
#270000
b11011 !
b11011 "
1N
1V
0-
07
18
1*
#280000
b11111 !
b11111 "
b11101 !
b11101 "
b11100 !
b11100 "
0N
0M
1L
0V
0U
1T
1-
17
09
0;
08
0:
1<
0*
0)
1(
#290000
b11101 !
b11101 "
1N
1V
0-
07
18
1*
#300000
b11111 !
b11111 "
b11110 !
b11110 "
0N
1M
0V
1U
1-
17
19
08
1:
0*
1)
#310000
b11111 !
b11111 "
1N
1V
0-
07
18
1*
#320000
b111111 !
b111111 "
b101111 !
b101111 "
b100111 !
b100111 "
b100011 !
b100011 "
b100001 !
b100001 "
b100000 !
b100000 "
0N
0M
0L
0K
0J
1I
0V
0U
0T
0S
0R
1Q
1-
17
09
1;
0=
1?
1A
08
0:
0<
0>
0@
1B
0*
0)
0(
0'
0&
1%
#330000
b100001 !
b100001 "
1N
1V
0-
07
18
1*
#340000
b100011 !
b100011 "
b100010 !
b100010 "
0N
1M
0V
1U
1-
17
19
08
1:
0*
1)
#350000
b100011 !
b100011 "
1N
1V
0-
07
18
1*
#360000
b100111 !
b100111 "
b100101 !
b100101 "
b100100 !
b100100 "
0N
0M
1L
0V
0U
1T
1-
17
09
0;
08
0:
1<
0*
0)
1(
#370000
b100101 !
b100101 "
1N
1V
0-
07
18
1*
#380000
b100111 !
b100111 "
b100110 !
b100110 "
0N
1M
0V
1U
1-
17
19
08
1:
0*
1)
#390000
b100111 !
b100111 "
1N
1V
0-
07
18
1*
#400000
b101111 !
b101111 "
b101011 !
b101011 "
b101001 !
b101001 "
b101000 !
b101000 "
0N
0M
0L
1K
0V
0U
0T
1S
1-
17
09
1;
1=
08
0:
0<
1>
0*
0)
0(
1'
#410000
b101001 !
b101001 "
1N
1V
0-
07
18
1*
#420000
b101011 !
b101011 "
b101010 !
b101010 "
0N
1M
0V
1U
1-
17
19
08
1:
0*
1)
#430000
b101011 !
b101011 "
1N
1V
0-
07
18
1*
#440000
b101111 !
b101111 "
b101101 !
b101101 "
b101100 !
b101100 "
0N
0M
1L
0V
0U
1T
1-
17
09
0;
08
0:
1<
0*
0)
1(
#450000
b101101 !
b101101 "
1N
1V
0-
07
18
1*
#460000
b101111 !
b101111 "
b101110 !
b101110 "
0N
1M
0V
1U
1-
17
19
08
1:
0*
1)
#470000
b101111 !
b101111 "
1N
1V
0-
07
18
1*
#480000
b111111 !
b111111 "
b110111 !
b110111 "
b110011 !
b110011 "
b110001 !
b110001 "
b110000 !
b110000 "
0N
0M
0L
0K
1J
0V
0U
0T
0S
1R
1-
17
09
1;
0=
0?
08
0:
0<
0>
1@
0*
0)
0(
0'
1&
#490000
b110001 !
b110001 "
1N
1V
0-
07
18
1*
#500000
b110011 !
b110011 "
b110010 !
b110010 "
0N
1M
0V
1U
1-
17
19
08
1:
0*
1)
#510000
b110011 !
b110011 "
1N
1V
0-
07
18
1*
#520000
b110111 !
b110111 "
b110101 !
b110101 "
b110100 !
b110100 "
0N
0M
1L
0V
0U
1T
1-
17
09
0;
08
0:
1<
0*
0)
1(
#530000
b110101 !
b110101 "
1N
1V
0-
07
18
1*
#540000
b110111 !
b110111 "
b110110 !
b110110 "
0N
1M
0V
1U
1-
17
19
08
1:
0*
1)
#550000
b110111 !
b110111 "
1N
1V
0-
07
18
1*
#560000
b111111 !
b111111 "
b111011 !
b111011 "
b111001 !
b111001 "
b111000 !
b111000 "
0N
0M
0L
1K
0V
0U
0T
1S
1-
17
09
1;
1=
08
0:
0<
1>
0*
0)
0(
1'
#570000
b111001 !
b111001 "
1N
1V
0-
07
18
1*
#580000
b111011 !
b111011 "
b111010 !
b111010 "
0N
1M
0V
1U
1-
17
19
08
1:
0*
1)
#590000
b111011 !
b111011 "
1N
1V
0-
07
18
1*
#600000
b111111 !
b111111 "
b111101 !
b111101 "
b111100 !
b111100 "
0N
0M
1L
0V
0U
1T
1-
17
09
0;
08
0:
1<
0*
0)
1(
#610000
b111101 !
b111101 "
1N
1V
0-
07
18
1*
#620000
b111111 !
b111111 "
b111110 !
b111110 "
0N
1M
0V
1U
1-
17
19
08
1:
0*
1)
#630000
b111111 !
b111111 "
1N
1V
0-
07
18
1*
#640000
b1111111 !
b1111111 "
b1011111 !
b1011111 "
b1001111 !
b1001111 "
b1000111 !
b1000111 "
b1000011 !
b1000011 "
b1000001 !
b1000001 "
b1000000 !
b1000000 "
0N
0M
0L
0K
0J
0I
1H
0V
0U
0T
0S
0R
0Q
1P
1-
17
09
1;
0=
1?
0A
0C
08
0:
0<
0>
0@
0B
1D
0*
0)
0(
0'
0&
0%
1$
#650000
b1000001 !
b1000001 "
1N
1V
0-
07
18
1*
#660000
b1000011 !
b1000011 "
b1000010 !
b1000010 "
0N
1M
0V
1U
1-
17
19
08
1:
0*
1)
#670000
b1000011 !
b1000011 "
1N
1V
0-
07
18
1*
#680000
b1000111 !
b1000111 "
b1000101 !
b1000101 "
b1000100 !
b1000100 "
0N
0M
1L
0V
0U
1T
1-
17
09
0;
08
0:
1<
0*
0)
1(
#690000
b1000101 !
b1000101 "
1N
1V
0-
07
18
1*
#700000
b1000111 !
b1000111 "
b1000110 !
b1000110 "
0N
1M
0V
1U
1-
17
19
08
1:
0*
1)
#710000
b1000111 !
b1000111 "
1N
1V
0-
07
18
1*
#720000
b1001111 !
b1001111 "
b1001011 !
b1001011 "
b1001001 !
b1001001 "
b1001000 !
b1001000 "
0N
0M
0L
1K
0V
0U
0T
1S
1-
17
09
1;
1=
08
0:
0<
1>
0*
0)
0(
1'
#730000
b1001001 !
b1001001 "
1N
1V
0-
07
18
1*
#740000
b1001011 !
b1001011 "
b1001010 !
b1001010 "
0N
1M
0V
1U
1-
17
19
08
1:
0*
1)
#750000
b1001011 !
b1001011 "
1N
1V
0-
07
18
1*
#760000
b1001111 !
b1001111 "
b1001101 !
b1001101 "
b1001100 !
b1001100 "
0N
0M
1L
0V
0U
1T
1-
17
09
0;
08
0:
1<
0*
0)
1(
#770000
b1001101 !
b1001101 "
1N
1V
0-
07
18
1*
#780000
b1001111 !
b1001111 "
b1001110 !
b1001110 "
0N
1M
0V
1U
1-
17
19
08
1:
0*
1)
#790000
b1001111 !
b1001111 "
1N
1V
0-
07
18
1*
#800000
b1011111 !
b1011111 "
b1010111 !
b1010111 "
b1010011 !
b1010011 "
b1010001 !
b1010001 "
b1010000 !
b1010000 "
0N
0M
0L
0K
1J
0V
0U
0T
0S
1R
1-
17
09
1;
0=
0?
08
0:
0<
0>
1@
0*
0)
0(
0'
1&
#810000
b1010001 !
b1010001 "
1N
1V
0-
07
18
1*
#820000
b1010011 !
b1010011 "
b1010010 !
b1010010 "
0N
1M
0V
1U
1-
17
19
08
1:
0*
1)
#830000
b1010011 !
b1010011 "
1N
1V
0-
07
18
1*
#840000
b1010111 !
b1010111 "
b1010101 !
b1010101 "
b1010100 !
b1010100 "
0N
0M
1L
0V
0U
1T
1-
17
09
0;
08
0:
1<
0*
0)
1(
#850000
b1010101 !
b1010101 "
1N
1V
0-
07
18
1*
#860000
b1010111 !
b1010111 "
b1010110 !
b1010110 "
0N
1M
0V
1U
1-
17
19
08
1:
0*
1)
#870000
b1010111 !
b1010111 "
1N
1V
0-
07
18
1*
#880000
b1011111 !
b1011111 "
b1011011 !
b1011011 "
b1011001 !
b1011001 "
b1011000 !
b1011000 "
0N
0M
0L
1K
0V
0U
0T
1S
1-
17
09
1;
1=
08
0:
0<
1>
0*
0)
0(
1'
#890000
b1011001 !
b1011001 "
1N
1V
0-
07
18
1*
#900000
b1011011 !
b1011011 "
b1011010 !
b1011010 "
0N
1M
0V
1U
1-
17
19
08
1:
0*
1)
#910000
b1011011 !
b1011011 "
1N
1V
0-
07
18
1*
#920000
b1011111 !
b1011111 "
b1011101 !
b1011101 "
b1011100 !
b1011100 "
0N
0M
1L
0V
0U
1T
1-
17
09
0;
08
0:
1<
0*
0)
1(
#930000
b1011101 !
b1011101 "
1N
1V
0-
07
18
1*
#940000
b1011111 !
b1011111 "
b1011110 !
b1011110 "
0N
1M
0V
1U
1-
17
19
08
1:
0*
1)
#950000
b1011111 !
b1011111 "
1N
1V
0-
07
18
1*
#960000
b1111111 !
b1111111 "
b1101111 !
b1101111 "
b1100111 !
b1100111 "
b1100011 !
b1100011 "
b1100001 !
b1100001 "
b1100000 !
b1100000 "
0N
0M
0L
0K
0J
1I
0V
0U
0T
0S
0R
1Q
1-
17
09
1;
0=
1?
1A
08
0:
0<
0>
0@
1B
0*
0)
0(
0'
0&
1%
#970000
b1100001 !
b1100001 "
1N
1V
0-
07
18
1*
#980000
b1100011 !
b1100011 "
b1100010 !
b1100010 "
0N
1M
0V
1U
1-
17
19
08
1:
0*
1)
#990000
b1100011 !
b1100011 "
1N
1V
0-
07
18
1*
