clock_div/simulation/qsim/clock_div.msim.vcd
$comment
	File created using the following command:
		vcd file clock_div.msim.vcd -direction
$end
$date
	Mon Aug 06 01:36:07 2018
$end
$version
	ModelSim Version 10.1d
$end
$timescale
	1ps
$end
$scope module clock_div_vlg_vec_tst $end
$var reg 1 ! Clock $end
$var reg 1 " E $end
$var wire 1 # clock_out $end
$var wire 1 $ sampler $end
$scope module i1 $end
$var wire 1 % gnd $end
$var wire 1 & vcc $end
$var wire 1 ' unknown $end
$var tri1 1 ( devclrn $end
$var tri1 1 ) devpor $end
$var tri1 1 * devoe $end
$var wire 1 + Clock~combout $end
$var wire 1 , Clock~clkctrl_outclk $end
$var wire 1 - E~combout $end
$var wire 1 . COUNT[0]~0_combout $end
$var wire 1 / COUNT[1]~1_combout $end
$var wire 1 0 COUNT[2]~2_combout $end
$var wire 1 1 COUNT[3]~3_combout $end
$var wire 1 2 COUNT[3]~4_combout $end
$var wire 1 3 Equal0~0_combout $end
$var wire 1 4 COUNT [3] $end
$var wire 1 5 COUNT [2] $end
$var wire 1 6 COUNT [1] $end
$var wire 1 7 COUNT [0] $end
$upscope $end
$upscope $end
$enddefinitions $end
#0
$dumpvars
0!
1"
1#
x$
0%
1&
x'
1(
1)
1*
0+
0,
1-
1.
0/
00
01
02
13
07
06
05
04
$end
#10000
1!
1+
1,
0$
#20000
0!
0+
0,
1$
#30000
1!
1+
1,
0$
#40000
0!
0+
0,
1$
#50000
1!
1+
1,
0$
#60000
0!
0+
0,
1$
#70000
1!
1+
1,
0$
#80000
0!
0+
0,
1$
#90000
1!
1+
1,
0$
#100000
0!
0+
0,
1$
#110000
1!
1+
1,
0$
#120000
0!
0+
0,
1$
#130000
1!
1+
1,
0$
#140000
0!
0+
0,
1$
#150000
1!
1+
1,
0$
#160000
0!
0+
0,
1$
#170000
1!
1+
1,
0$
#180000
0!
0+
0,
1$
#190000
1!
1+
1,
0$
#200000
0!
0+
0,
1$
#210000
1!
1+
1,
0$
#220000
0!
0+
0,
1$
#230000
1!
1+
1,
0$
#240000
0!
0+
0,
1$
#250000
1!
1+
1,
0$
#260000
0!
0+
0,
1$
#270000
1!
1+
1,
0$
#280000
0!
0+
0,
1$
#290000
1!
1+
1,
0$
#300000
0!
0+
0,
1$
#310000
1!
1+
1,
0$
#320000
0!
0+
0,
1$
#330000
1!
1+
1,
0$
#340000
0!
0+
0,
1$
#350000
1!
1+
1,
0$
#360000
0!
0+
0,
1$
#370000
1!
1+
1,
0$
#380000
0!
0+
0,
1$
#390000
1!
1+
1,
0$
#400000
0!
0+
0,
1$
#410000
1!
1+
1,
0$
#420000
0!
0+
0,
1$
#430000
1!
1+
1,
0$
#440000
0!
0+
0,
1$
#450000
1!
1+
1,
0$
#460000
0!
0+
0,
1$
#470000
1!
1+
1,
0$
#480000
0!
0+
0,
1$
#490000
1!
1+
1,
0$
#500000
0!
0+
0,
1$
#510000
1!
1+
1,
0$
#520000
0!
0+
0,
1$
#530000
1!
1+
1,
0$
#540000
0!
0+
0,
1$
#550000
1!
1+
1,
0$
#560000
0!
0+
0,
1$
#570000
1!
1+
1,
0$
#580000
0!
0+
0,
1$
#590000
1!
1+
1,
0$
#600000
0!
0+
0,
1$
#610000
1!
1+
1,
0$
#620000
0!
0+
0,
1$
#630000
1!
1+
1,
0$
#640000
0!
0+
0,
1$
#650000
1!
1+
1,
0$
#660000
0!
0+
0,
1$
#670000
1!
1+
1,
0$
#680000
0!
0+
0,
1$
#690000
1!
1+
1,
0$
#700000
0!
0+
0,
1$
#710000
1!
1+
1,
0$
#720000
0!
0+
0,
1$
#730000
1!
1+
1,
0$
#740000
0!
0+
0,
1$
#750000
1!
1+
1,
0$
#760000
0!
0+
0,
1$
#770000
1!
1+
1,
0$
#780000
0!
0+
0,
1$
#790000
1!
1+
1,
0$
#800000
0!
0+
0,
1$
#810000
1!
1+
1,
0$
#820000
0!
0+
0,
1$
#830000
1!
1+
1,
0$
#840000
0!
0+
0,
1$
#850000
1!
1+
1,
0$
#860000
0!
0+
0,
1$
#870000
1!
1+
1,
0$
#880000
0!
0+
0,
1$
#890000
1!
1+
1,
0$
#900000
0!
0+
0,
1$
#910000
1!
1+
1,
0$
#920000
0!
0+
0,
1$
#930000
1!
1+
1,
0$
#940000
0!
0+
0,
1$
#950000
1!
1+
1,
0$
#960000
0!
0+
0,
1$
#970000
1!
1+
1,
0$
#980000
0!
0+
0,
1$
#990000
1!
1+
1,
0$
